cosimulation/systemctlm-cosim-demo/trace.vcd
$date
     Oct 14, 2018       21:49:23
$end

$version
 SystemC 2.3.1-Accellera --- Aug  5 2014 20:36:07
$end

$timescale
     1 ps
$end

$scope module SystemC $end
$var wire    1  aaaaa  top.zynq.pl2ps_irq_0       $end
$var wire    1  aaaab  top.zynq.pl2ps_irq_1       $end
$var wire    1  aaaac  top.zynq.pl2ps_irq_2       $end
$var wire    1  aaaad  top.zynq.pl2ps_irq_3       $end
$var wire    1  aaaae  top.zynq.pl2ps_irq_4       $end
$var wire    1  aaaaf  top.zynq.pl2ps_irq_5       $end
$var wire    1  aaaag  top.zynq.pl2ps_irq_6       $end
$var wire    1  aaaah  top.zynq.pl2ps_irq_7       $end
$var wire    1  aaaai  top.zynq.pl2ps_irq_8       $end
$var wire    1  aaaaj  top.zynq.pl2ps_irq_9       $end
$var wire    1  aaaak  top.zynq.pl2ps_irq_10       $end
$var wire    1  aaaal  top.zynq.pl2ps_irq_11       $end
$var wire    1  aaaam  top.zynq.pl2ps_irq_12       $end
$var wire    1  aaaan  top.zynq.pl2ps_irq_13       $end
$var wire    1  aaaao  top.zynq.pl2ps_irq_14       $end
$var wire    1  aaaap  top.zynq.pl2ps_irq_15       $end
$var wire    1  aaaaq  top.zynq.pl2ps_irq_16       $end
$var wire    1  aaaar  top.zynq.pl2ps_irq_17       $end
$var wire    1  aaaas  top.zynq.pl2ps_irq_18       $end
$var wire    1  aaaat  top.zynq.pl2ps_irq_19       $end
$var wire    1  aaaau  top.zynq.ps2pl_irq_0       $end
$var wire    1  aaaav  top.zynq.ps2pl_irq_1       $end
$var wire    1  aaaaw  top.zynq.ps2pl_irq_2       $end
$var wire    1  aaaax  top.zynq.ps2pl_irq_3       $end
$var wire    1  aaaay  top.zynq.ps2pl_irq_4       $end
$var wire    1  aaaaz  top.zynq.ps2pl_irq_5       $end
$var wire    1  aaaba  top.zynq.ps2pl_irq_6       $end
$var wire    1  aaabb  top.zynq.ps2pl_irq_7       $end
$var wire    1  aaabc  top.zynq.ps2pl_irq_8       $end
$var wire    1  aaabd  top.zynq.ps2pl_irq_9       $end
$var wire    1  aaabe  top.zynq.ps2pl_irq_10       $end
$var wire    1  aaabf  top.zynq.ps2pl_irq_11       $end
$var wire    1  aaabg  top.zynq.ps2pl_irq_12       $end
$var wire    1  aaabh  top.zynq.ps2pl_irq_13       $end
$var wire    1  aaabi  top.zynq.ps2pl_irq_14       $end
$var wire    1  aaabj  top.zynq.ps2pl_irq_15       $end
$var wire    1  aaabk  top.zynq.ps2pl_irq_16       $end
$var wire    1  aaabl  top.zynq.ps2pl_irq_17       $end
$var wire    1  aaabm  top.zynq.ps2pl_irq_18       $end
$var wire    1  aaabn  top.zynq.ps2pl_irq_19       $end
$var wire    1  aaabo  top.zynq.ps2pl_irq_20       $end
$var wire    1  aaabp  top.zynq.ps2pl_irq_21       $end
$var wire    1  aaabq  top.zynq.ps2pl_irq_22       $end
$var wire    1  aaabr  top.zynq.ps2pl_irq_23       $end
$var wire    1  aaabs  top.zynq.ps2pl_irq_24       $end
$var wire    1  aaabt  top.zynq.ps2pl_irq_25       $end
$var wire    1  aaabu  top.zynq.ps2pl_irq_26       $end
$var wire    1  aaabv  top.zynq.ps2pl_irq_27       $end
$var wire    1  aaabw  top.zynq.ps2pl_rst_0       $end
$var wire    1  aaabx  top.zynq.ps2pl_rst_1       $end
$var wire    1  aaaby  top.zynq.ps2pl_rst_2       $end
$var wire    1  aaabz  top.zynq.ps2pl_rst_3       $end
$var wire    1  aaaca  top.zynq.ps2pl_rst_4       $end
$var wire    1  aaacb  top.zynq.ps2pl_rst_5       $end
$var wire    1  aaacc  top.zynq.ps2pl_rst_6       $end
$var wire    1  aaacd  top.zynq.ps2pl_rst_7       $end
$var wire    1  aaace  top.zynq.ps2pl_rst_8       $end
$var wire    1  aaacf  top.zynq.ps2pl_rst_9       $end
$var wire    1  aaacg  top.zynq.ps2pl_rst_10       $end
$var wire    1  aaach  top.zynq.ps2pl_rst_11       $end
$var wire    1  aaaci  top.zynq.ps2pl_rst_12       $end
$var wire    1  aaacj  top.zynq.ps2pl_rst_13       $end
$var wire    1  aaack  top.zynq.ps2pl_rst_14       $end
$var wire    1  aaacl  top.zynq.ps2pl_rst_15       $end
$var wire    1  aaacm  top.zynq.ps2pl_rst_16       $end
$var wire    1  aaacn  top.rst       $end
$upscope $end
$enddefinitions  $end

$comment
All initial values are dumped below at time 0 sec = 0 timescale units.
$end

$dumpvars
0aaaaa
0aaaab
0aaaac
0aaaad
0aaaae
0aaaaf
0aaaag
0aaaah
0aaaai
0aaaaj
0aaaak
0aaaal
0aaaam
0aaaan
0aaaao
0aaaap
0aaaaq
0aaaar
0aaaas
0aaaat
0aaaau
0aaaav
0aaaaw
0aaaax
0aaaay
0aaaaz
0aaaba
0aaabb
0aaabc
0aaabd
0aaabe
0aaabf
0aaabg
0aaabh
0aaabi
0aaabj
0aaabk
0aaabl
0aaabm
0aaabn
0aaabo
0aaabp
0aaabq
0aaabr
0aaabs
0aaabt
0aaabu
0aaabv
0aaabw
0aaabx
0aaaby
0aaabz
0aaaca
0aaacb
0aaacc
0aaacd
0aaace
0aaacf
0aaacg
0aaach
0aaaci
0aaacj
0aaack
0aaacl
0aaacm
1aaacn
$end

#1000000
0aaacn

#1001000
1aaaca

#1002000
1aaacb

#1003000
1aaacc

#1004000
1aaacd

#1005000
1aaace

#1006000
1aaacf

#1007000
1aaacg

#1008000
1aaach

#1009000
1aaaci

#1010000
1aaacj

#1011000
1aaack

#1012000
1aaacl

#1013000
1aaacm

#1171738028000
1aaabm

#1171745598000
0aaabm

#1171752880000
1aaabm

#1171760050000
0aaabm

#1171794788000
1aaabm

#1171799416000
0aaabm

#1171811808000
1aaabm

#1171817592000
0aaabm

#1171833870000
1aaabm

#1171838976000
0aaabm

#1171849930000
1aaabm

#1171855062000
0aaabm

#1171878698000
1aaabm

#1171883776000
0aaabm

#1171894188000
1aaabm

#1171899124000
0aaabm

#1171914120000
1aaabm

#1171919226000
0aaabm

#1171934376000
1aaabm

#1171939540000
0aaabm

#1171949848000
1aaabm

#1171954980000
0aaabm

#3898113620000
1aaabg

#3898119322000
0aaabg

#3903433670000
1aaabg

#3903437354000
0aaabg

#3903485222000
1aaabg

#3903487354000
0aaabg

#3903509504000
1aaabg

#3903517354000
0aaabg

#3903533738000
1aaabg

#3903538744000
0aaabg

#3903549542000
1aaabg

#3903557816000
0aaabg

#3903574912000
1aaabg

#3903583384000
0aaabg

#3903599770000
1aaabg

#3903607354000
0aaabg

#3906275108000
1aaabg

#3906284214000
0aaabg

#3911382762000
1aaabg

#3911387354000
0aaabg

#3911412188000
1aaabg

#3911417354000
0aaabg

#3911434034000
1aaabg

#3911437354000
0aaabg

#3911512396000
1aaabg

#3911518450000
0aaabg

#3911542388000
1aaabg

#3911547354000
0aaabg

#3911569286000
1aaabg

#3911577354000
0aaabg

#3911592914000
1aaabg

#3911601378000
0aaabg

#3911615976000
1aaabg

#3911617354000
0aaabg

#3911644578000
1aaabg

#3911653042000
0aaabg

#3911672928000
1aaabg

#3911677354000
0aaabg

#3911697588000
1aaabg

#3911708348000
0aaabg

#3912560128000
1aaabg

#3912563172000
0aaabg

#3915260620000
1aaabg

#3915263606000
0aaabg

#3915383740000
1aaabg

#3915384524000
0aaabg

#3915418058000
1aaabg

#3915418842000
0aaabg

#3915733146000
1aaabg

#3915736122000
0aaabg

#3915830660000
1aaabg

#3915834604000
0aaabg

#3915846606000
1aaabg

#3915850518000
0aaabg

#3915932644000
1aaabg

#3915936920000
0aaabg

#3917406548000
1aaabg

#3917411424000
0aaabg

#3918651084000
1aaabg

#3918655896000
0aaabg

#3918665808000
1aaabg

#3918666920000
0aaabg

#3918672334000
1aaabg

#3918676760000
0aaabg

#3918690600000
1aaabg

#3918695402000
0aaabg

#3918700816000
1aaabg

#3918705618000
0aaabg

#3918719560000
1aaabg

#3918724362000
0aaabg

#3918729776000
1aaabg

#3918734578000
0aaabg

#3918749252000
1aaabg

#3918753164000
0aaabg

#3918758658000
1aaabg

#3918761634000
0aaabg

#3918772896000
1aaabg

#3918775872000
0aaabg

#3918781286000
1aaabg

#3918784310000
0aaabg

#3918801988000
1aaabg

#3918804964000
0aaabg

#3918810378000
1aaabg

#3918813402000
0aaabg

#3918829822000
1aaabg

#3918832846000
0aaabg

#3918838260000
1aaabg

#3918841284000
0aaabg

#3918853942000
1aaabg

#3918856920000
0aaabg

#3918862334000
1aaabg

#3918863164000
0aaabg

#3918880482000
1aaabg

#3918883506000
0aaabg

#3918888920000
1aaabg

#3918894136000
0aaabg

#3918906746000
1aaabg

#3918909770000
0aaabg

#3918915184000
1aaabg

#3918916920000
0aaabg

#3918930724000
1aaabg

#3918933748000
0aaabg

#3918939162000
1aaabg

#3918942138000
0aaabg

#3918955608000
1aaabg

#3918956920000
0aaabg

#3918962334000
1aaabg

#3918963118000
0aaabg

#3918975744000
1aaabg

#3918976920000
0aaabg

#3918982334000
1aaabg

#3918984438000
0aaabg

#3918997682000
1aaabg

#3919000706000
0aaabg

#3919006120000
1aaabg

#3919006920000
0aaabg

#3919020270000
1aaabg

#3919023278000
0aaabg

#3919028692000
1aaabg

#3919029476000
0aaabg

#3919039740000
1aaabg

#3919042764000
0aaabg

#3919099934000
1aaabg

#3919103846000
0aaabg

#3919112068000
1aaabg

#3919115932000
0aaabg

#3919121346000
1aaabg

#3919125210000
0aaabg

#3919140148000
1aaabg

#3919144060000
0aaabg

#3919149554000
1aaabg

#3919153466000
0aaabg

#3919162236000
1aaabg

#3919166148000
0aaabg

#3919203962000
1aaabg

#3919206920000
0aaabg

#3919212292000
1aaabg

#3919213076000
0aaabg

#3919399680000
1aaabg

#3919400464000
0aaabg

#3919405836000
1aaabg

#3919406620000
0aaabg

#3919703406000
1aaabg

#3919704190000
0aaabg

#3919711764000
1aaabg

#3919714750000
0aaabg

#3919809046000
1aaabg

#3919812032000
0aaabg

#3919925536000
1aaabg

#3919926320000
0aaabg

#3919965570000
1aaabg

#3919966920000
0aaabg

#3920006320000
1aaabg

#3920009628000
0aaabg

#3920049182000
1aaabg

#3920053056000
0aaabg

#3920098310000
1aaabg

#3920103042000
0aaabg

#3920142824000
1aaabg

#3920146920000
0aaabg

#3920186834000
1aaabg

#3920188066000
0aaabg

#3920227314000
1aaabg

#3920228286000
0aaabg

#3920277370000
1aaabg

#3920282118000
0aaabg

#3920319312000
1aaabg

#3920324060000
0aaabg

#3924503248000
1aaabg

#3924504032000
0aaabg

#3924539474000
1aaabg

#3924541192000
0aaabg

#3924576924000
1aaabg

#3924581672000
0aaabg

#3924642972000
1aaabg

#3924646920000
0aaabg

#3924682354000
1aaabg

#3924683938000
0aaabg

#3924719832000
1aaabg

#3924724580000
0aaabg

#3924760332000
1aaabg

#3924765064000
0aaabg

#3924805842000
1aaabg

#3924806920000
0aaabg

#3924842440000
1aaabg

#3924846894000
0aaabg

#3924882306000
1aaabg

#3924883090000
0aaabg

#3924918398000
1aaabg

#3924923146000
0aaabg

#3924964404000
1aaabg

#3924966920000
0aaabg

#3925002194000
1aaabg

#3925005210000
0aaabg

#3925040498000
1aaabg

#3925045230000
0aaabg

#3925080502000
1aaabg

#3925085202000
0aaabg

#3925126016000
1aaabg

#3925126920000
0aaabg

#3925162674000
1aaabg

#3925166428000
0aaabg

#3925208704000
1aaabg

#3925213452000
0aaabg

#3925248950000
1aaabg

#3925253668000
0aaabg

#3925293420000
1aaabg

#3925296920000
0aaabg

#3925332608000
1aaabg

#3925334640000
0aaabg

#3925375418000
1aaabg

#3925376920000
0aaabg

#3925415656000
1aaabg

#3925420374000
0aaabg

#3925458738000
1aaabg

#3925462582000
0aaabg

#3925504422000
1aaabg

#3925508266000
0aaabg

#3925549176000
1aaabg

#3925552162000
0aaabg

#3925595388000
1aaabg

#3925596920000
0aaabg

#3925635848000
1aaabg

#3925638834000
0aaabg

#3925681850000
1aaabg

#3925684836000
0aaabg

#3925724722000
1aaabg

#3925726920000
0aaabg

#3925774572000
1aaabg

#3925776144000
0aaabg

#3925924298000
1aaabg

#3925926920000
0aaabg

#3926045870000
1aaabg

#3926056920000
0aaabg

#3926127418000
1aaabg

#3926136920000
0aaabg

#3926146046000
1aaabg

#3926146920000
0aaabg

#3926195870000
1aaabg

#3926196920000
0aaabg

#3926235870000
1aaabg

#3926236920000
0aaabg

#3926275870000
1aaabg

#3926276920000
0aaabg

#3926315870000
1aaabg

#3926316920000
0aaabg

#3926365870000
1aaabg

#3926366920000
0aaabg

#3926427416000
1aaabg

#3926436920000
0aaabg

#3926446820000
1aaabg

#3926456920000
0aaabg

#3926471844000
1aaabg

#3926476920000
0aaabg

#3926494246000
1aaabg

#3926496920000
0aaabg

#3926535870000
1aaabg

#3926536920000
0aaabg

#3926576082000
1aaabg

#3926576920000
0aaabg

#3926615870000
1aaabg

#3926616920000
0aaabg

#3926670944000
1aaabg

#3926676920000
0aaabg

#3926690124000
1aaabg

#3926696920000
0aaabg

#3926710742000
1aaabg

#3926716920000
0aaabg

#3926766644000
1aaabg

#3926776920000
0aaabg

#3926790602000
1aaabg

#3926796920000
0aaabg

#3926810742000
1aaabg

#3926826920000
0aaabg

#3926841276000
1aaabg

#3926846920000
0aaabg

#3926860414000
1aaabg

#3926866920000
0aaabg

#3926975598000
1aaabg

#3926984694000
0aaabg

#3927093316000
1aaabg

#3927100364000
0aaabg

#3927311216000
1aaabg

#3927315150000
0aaabg

#3927524900000
1aaabg

#3927526920000
0aaabg

#3927745870000
1aaabg

#3927746920000
0aaabg

#3927815870000
1aaabg

#3927816920000
0aaabg

#3927907598000
1aaabg

#3927910126000
0aaabg

#3927985870000
1aaabg

#3927986920000
0aaabg

#3928235044000
1aaabg

#3928236920000
0aaabg

#3928511094000
1aaabg

#3928512078000
0aaabg

#3928865144000
1aaabg

#3928866720000
0aaabg

#3929536740000
1aaabg

#3929539112000
0aaabg

#3929929816000
1aaabg

#3929933750000
0aaabg

#3930300906000
1aaabg

#3930305698000
0aaabg

#3930590108000
1aaabg

#3930594042000
0aaabg

#3930953716000
1aaabg

#3930954500000
0aaabg

#3931312044000
1aaabg

#3931316092000
0aaabg

#3931532508000
1aaabg

#3931536920000
0aaabg

#3932085870000
1aaabg

#3932091980000
0aaabg

#3932175870000
1aaabg

#3932176920000
0aaabg

#3932380080000
1aaabg

#3932381320000
0aaabg

#3932451038000
1aaaav

#3932457402000
0aaaav

#3932506168000
1aaaav

#3932527402000
0aaaav

#3932548782000
1aaaav

#3932567400000
0aaaav

#3932733420000
1aaabg

#3932738070000
0aaabg

#3932882696000
1aaabg

#3932889752000
0aaabg

#3934049144000
1aaabg

#3934052998000
0aaabg

#3934238592000
1aaabg

#3934241590000
0aaabg

#3934320016000
1aaabg

#3934323002000
0aaabg

#3934420056000
1aaabg

#3934423930000
0aaabg

#3934496264000
1aaabg

#3934500132000
0aaabg

#3934570202000
1aaabg

#3934573188000
0aaabg

#3934958906000
1aaabg

#3934962780000
0aaabg

#3935389450000
1aaabg

#3935393314000
0aaabg

#3935620496000
1aaabg

#3935624360000
0aaabg

#3935815040000
1aaabg

#3935818016000
0aaabg

#3935995162000
1aaabg

#3935999074000
0aaabg

#3936317134000
1aaabg

#3936321874000
0aaabg

#3936679974000
1aaabg

#3936682950000
0aaabg

#3937327064000
1aaabg

#3937327948000
0aaabg

#3937690042000
1aaabg

#3937694918000
0aaabg

#3938259822000
1aaabg

#3938264594000
0aaabg

#3938581058000
1aaabg

#3938585902000
0aaabg

#3938759328000
1aaabg

#3938764204000
0aaabg

#3938925376000
1aaabg

#3938926920000
0aaabg

#3940367684000
1aaabg

#3940371628000
0aaabg

#3940462670000
1aaabg

#3940466584000
0aaabg

#3941257862000
1aaabg

#3941266920000
0aaabg

#3941780542000
1aaabg

#3941781426000
0aaabg

#3942854054000
1aaabg

#3942856920000
0aaabg

#3943040532000
1aaabg

#3943041316000
0aaabg

#3943615344000
1aaabg

#3943616920000
0aaabg

#3943668378000
1aaabg

#3943672256000
0aaabg

#3945498352000
1aaabg

#3945506920000
0aaabg

#3954200816000
1aaabg

#3954205880000
0aaabg

#3954676174000
1aaabg

#3954677058000
0aaabg

#3954996706000
1aaabg

#3955005906000
0aaabg

#3955210036000
1aaabg

#3955210920000
0aaabg

#3955885064000
1aaabg

#3955886920000
0aaabg

#3956225064000
1aaabg

#3956226920000
0aaabg

#3956862756000
1aaabg

#3956866920000
0aaabg

#3956918150000
1aaabg

#3956918934000
0aaabg

#3957212612000
1aaabg

#3957216920000
0aaabg

#3957745618000
1aaabg

#3957753058000
0aaabg

#3958175064000
1aaabg

#3958176920000
0aaabg

#3963603778000
1aaabg

#3963606920000
0aaabg

#3968057476000
1aaabg

#3968060462000
0aaabg

#3971392858000
1aaabg

#3971395904000
0aaabg

#3972710200000
1aaabg

#3972713868000
0aaabg

#3976083282000
1aaabg

#3976086920000
0aaabg

#3980566864000
1aaabg

#3980574200000
0aaabg

#3985606870000
1aaabg

#3985614224000
0aaabg

#3985686644000
1aaabg

#3985696920000
0aaabg

#3985706054000
1aaabg

#3985706920000
0aaabg

#3985770734000
1aaabg

#3985776920000
0aaabg

#3985786054000
1aaabg

#3985786920000
0aaabg

#3985845870000
1aaabg

#3985846920000
0aaabg

#3985881688000
1aaabg

#3985886920000
0aaabg

#3985896054000
1aaabg

#3985896920000
0aaabg

#3985956644000
1aaabg

#3985966920000
0aaabg

#3985976054000
1aaabg

#3985976920000
0aaabg

#3986035870000
1aaabg

#3986036920000
0aaabg

#3986086644000
1aaabg

#3986096920000
0aaabg

#3986106054000
1aaabg

#3986106920000
0aaabg

#3986155870000
1aaabg

#3986156920000
0aaabg

#3986195870000
1aaabg

#3986196920000
0aaabg

#3986235870000
1aaabg

#3986236920000
0aaabg

#3986275870000
1aaabg

#3986276920000
0aaabg

#3986323650000
1aaabg

#3986326920000
0aaabg

#3986340726000
1aaabg

#3986346920000
0aaabg

#3986361080000
1aaabg

#3986366920000
0aaabg

#3986416644000
1aaabg

#3986426920000
0aaabg

#3986443218000
1aaabg

#3986446920000
0aaabg

#3986503044000
1aaabg

#3986506920000
0aaabg

#3986516054000
1aaabg

#3986516920000
0aaabg

#3986585870000
1aaabg

#3986586920000
0aaabg

#3987775870000
1aaabg

#3987776920000
0aaabg

#3987845870000
1aaabg

#3987846920000
0aaabg

#3987885870000
1aaabg

#3987886920000
0aaabg

#3987940372000
1aaabg

#3987946920000
0aaabg

#3987956054000
1aaabg

#3987956920000
0aaabg

#3988005870000
1aaabg

#3988006920000
0aaabg

#3988042774000
1aaabg

#3988056920000
0aaabg

#3988065982000
1aaabg

#3988066920000
0aaabg

#3988080750000
1aaabg

#3988086920000
0aaabg

#3988104246000
1aaabg

#3988106920000
0aaabg

#3988145870000
1aaabg

#3988146920000
0aaabg

#3988195870000
1aaabg

#3988196920000
0aaabg

#3988247418000
1aaabg

#3988256920000
0aaabg

#3988266054000
1aaabg

#3988276920000
0aaabg

#3988291852000
1aaabg

#3988296920000
0aaabg

#3988309648000
1aaabg

#3988316920000
0aaabg

#3988329648000
1aaabg

#3988336920000
0aaabg

#3988386644000
1aaabg

#3988396920000
0aaabg

#3988406054000
1aaabg

#3988406920000
0aaabg

#3988455870000
1aaabg

#3988456920000
0aaabg

#3988495870000
1aaabg

#3988496920000
0aaabg

#3988535870000
1aaabg

#3988546920000
0aaabg

#3988556828000
1aaabg

#3988566920000
0aaabg

#3988605870000
1aaabg

#3988616920000
0aaabg

#3988626054000
1aaabg

#3988633370000
0aaabg

#3988705870000
1aaabg

#3988706832000
0aaabg

#3988765870000
1aaabg

#3988766910000
0aaabg

#3992505004000
1aaabg

#3992506820000
0aaabg

#3995080642000
1aaabg

#3995083628000
0aaabg

#4000059174000
1aaabg

#4000062150000
0aaabg

#4000562110000
1aaabg

#4000565134000
0aaabg

#4000669594000
1aaabg

#4000673458000
0aaabg

#4008244278000
1aaaav

#4008246966000
0aaaav

#4008257116000
1aaaav

#4008260148000
0aaaav

#4013468600000
1aaabg

#4013471586000
0aaabg

#4026976864000
1aaabg

#4026980644000
0aaabg

#4027075870000
1aaabg

#4027076920000
0aaabg

#4027605870000
1aaabg

#4027606920000
0aaabg

#4033082396000
1aaabg

#4033086920000
0aaabg

#4035503798000
1aaabg

#4035506920000
0aaabg

#4056819790000
1aaabg

#4056826920000
0aaabg

#4067038528000
1aaabg

#4067073976000
0aaabg

#4067562636000
1aaabg

#4067567294000
0aaabg

#4068073284000
1aaabg

#4068074268000
0aaabg

#4068096048000
1aaabg

#4068099982000
0aaabg

#4068408420000
1aaabg

#4068411466000
0aaabg

#4068558718000
1aaabg

#4068559502000
0aaabg

#4068671256000
1aaabg

#4068675048000
0aaabg

#4068818752000
1aaabg

#4068821798000
0aaabg

#4069214852000
1aaabg

#4069216920000
0aaabg

#4069371270000
1aaabg

#4069374316000
0aaabg

#4069539596000
1aaabg

#4069542642000
0aaabg

#4070138142000
1aaabg

#4070141188000
0aaabg

#4070899330000
1aaabg

#4070902376000
0aaabg

#4071425870000
1aaabg

#4071430606000
0aaabg

#4071483340000
1aaabg

#4071488600000
0aaabg

#4071555870000
1aaabg

#4071556920000
0aaabg

#4071697164000
1aaabg

#4071697948000
0aaabg

#4071788288000
1aaabg

#4071791276000
0aaabg

#4071888658000
1aaabg

#4071891694000
0aaabg

#4072002922000
1aaabg

#4072006038000
0aaabg

#4072893602000
1aaabg

#4072898778000
0aaabg

#4073368888000
1aaabg

#4073371934000
0aaabg

#4073552100000
1aaabg

#4073555922000
0aaabg

#4073735044000
1aaabg

#4073736920000
0aaabg

#4073849780000
1aaabg

#4073852778000
0aaabg

#4073995598000
1aaabg

#4073996920000
0aaabg

#4074193156000
1aaabg

#4074193940000
0aaabg

#4074565044000
1aaabg

#4074566920000
0aaabg

#4074688856000
1aaabg

#4074689640000
0aaabg

#4074865044000
1aaabg

#4074866920000
0aaabg

#4075015388000
1aaabg

#4075016920000
0aaabg

#4075285870000
1aaabg

#4075286920000
0aaabg

#4076625870000
1aaabg

#4076626920000
0aaabg

#4076795870000
1aaabg

#4076796920000
0aaabg

#4077055870000
1aaabg

#4077056920000
0aaabg

#4077145870000
1aaabg

#4077146920000
0aaabg

#4077335870000
1aaabg

#4077336920000
0aaabg

#4077540294000
1aaabg

#4077543282000
0aaabg

#4078086446000
1aaabg

#4078089020000
0aaabg

#4078418352000
1aaabg

#4078422508000
0aaabg

#4079395870000
1aaabg

#4079396920000
0aaabg

#4079648642000
1aaabg

#4079651678000
0aaabg

#4079985870000
1aaabg

#4079986920000
0aaabg

#4080185870000
1aaabg

#4080186920000
0aaabg

#4080385870000
1aaabg

#4080386920000
0aaabg

#4080575870000
1aaabg

#4080576920000
0aaabg

#4080703786000
1aaabg

#4080706774000
0aaabg

#4081385870000
1aaabg

#4081386920000
0aaabg

#4081625870000
1aaabg

#4081626920000
0aaabg

#4081775870000
1aaabg

#4081776920000
0aaabg

#4081895870000
1aaabg

#4081896920000
0aaabg

#4082015870000
1aaabg

#4082016920000
0aaabg

#4084315152000
1aaabg

#4084316920000
0aaabg

#4084799016000
1aaabg

#4084805070000
0aaabg

#4085267280000
1aaabg

#4085268164000
0aaabg

#4086444310000
1aaabg

#4086445194000
0aaabg

#4129719118000
1aaabg

#4129726920000
0aaabg

#4129841692000
1aaabg

#4129846920000
0aaabg

#4129906172000
1aaabg

#4129916920000
0aaabg

#4129993010000
1aaabg

#4129996920000
0aaabg

#4131546796000
1aaabg

#4131566920000
0aaabg

#4155087300000
1aaabg

#4155096920000
0aaabg

#4157468724000
1aaabg

#4157476920000
0aaabg

#4157487322000
1aaabg

#4157496920000
0aaabg

#4159043694000
1aaabg

#4159046920000
0aaabg

#4171212192000
1aaabg

#4171216920000
0aaabg

#4177916058000
1aaabg

#4177916920000
0aaabg

#4199983726000
1aaabg

#4199996920000
0aaabg

#4200006954000
1aaabg

#4200016920000
0aaabg

#4200090966000
1aaabg

#4200096920000
0aaabg

#4200134436000
1aaabg

#4200136920000
0aaabg

#4200174018000
1aaabg

#4200176920000
0aaabg

#4200215912000
1aaabg

#4200226920000
0aaabg

#4200264658000
1aaabg

#4200266920000
0aaabg

#4200373572000
1aaabg

#4200396920000
0aaabg

#4200434466000
1aaabg

#4200436920000
0aaabg

#4200499696000
1aaabg

#4200500480000
0aaabg

#4200537920000
1aaabg

#4200546920000
0aaabg

#4200584686000
1aaabg

#4200586920000
0aaabg

#4200634040000
1aaabg

#4200636920000
0aaabg

#4200674358000
1aaabg

#4200676920000
0aaabg

#4200714068000
1aaabg

#4200716920000
0aaabg

#4200754362000
1aaabg

#4200766920000
0aaabg

#4200808838000
1aaabg

#4200826920000
0aaabg

#4200874464000
1aaabg

#4200876920000
0aaabg

#4200956378000
1aaabg

#4200976920000
0aaabg

#4201049718000
1aaabg

#4201056920000
0aaabg

#4201118086000
1aaabg

#4201136920000
0aaabg

#4201218830000
1aaabg

#4201226920000
0aaabg

#4201550648000
1aaabg

#4201556920000
0aaabg

#4201571918000
1aaabg

#4201576920000
0aaabg

#4201627594000
1aaabg

#4201656920000
0aaabg

#4201739088000
1aaabg

#4201746920000
0aaabg

#4202601972000
1aaabg

#4202626906000
0aaabg

#4203471548000
1aaabg

#4203472332000
0aaabg

#4204343834000
1aaabg

#4204346920000
0aaabg

#4206604838000
1aaabg

#4206606920000
0aaabg

#4206616954000
1aaabg

#4206956286000
0aaabg

#4207578602000
1aaabg

#4207579386000
0aaabg

#4207681508000
1aaabg

#4207866700000
0aaabg

#4207924376000
1aaabg

#4208006824000
0aaabg

#4210492164000
1aaabg

#4210506920000
0aaabg

#4210529364000
1aaabg

#4210536920000
0aaabg

#4210582902000
1aaabg

#4210596920000
0aaabg

#4210674560000
1aaabg

#4210675344000
0aaabg

#4214311350000
1aaabg

#4214346916000
0aaabg

#4214395288000
1aaabg

#4214396920000
0aaabg

#4216422194000
1aaabg

#4216436916000
0aaabg

#4216461842000
1aaabg

#4216466920000
0aaabg

#4216529492000
1aaabg

#4216536920000
0aaabg

#4218732454000
1aaabg

#4218733238000
0aaabg

#4242634654000
1aaabg

#4242636920000
0aaabg

#4245505286000
1aaabg

#4245506920000
0aaabg

#4250424654000
1aaabg

#4250446920000
0aaabg

#4318580518000
1aaabg

#4318606916000
0aaabg

#4319093732000
1aaabg

#4319106920000
0aaabg

#4388412260000
1aaabg

#4388426920000
0aaabg

#4408969678000
1aaabg

#4408976920000
0aaabg

#4521743638000
1aaabg

#4521746920000
0aaabg

#4540101992000
1aaabg

#4540106920000
0aaabg

#4553976382000
1aaabg

#4553986920000
0aaabg

#4554306470000
1aaabg

#4554366824000
0aaabg

#4554466152000
1aaabg

#4554516892000
0aaabg

#4554689666000
1aaabg

#4554706920000
0aaabg

#4554832362000
1aaabg

#4554836920000
0aaabg

#4554987166000
1aaabg

#4555026892000
0aaabg

#4555226098000
1aaabg

#4555236920000
0aaabg

#4555788702000
1aaabg

#4555789486000
0aaabg

#4555956054000
1aaabg

#4555956920000
0aaabg

#4556046260000
1aaabg

#4556056920000
0aaabg

#4556166054000
1aaabg

#4556166920000
0aaabg

#4556823350000
1aaabg

#4556826920000
0aaabg

#4556843026000
1aaabg

#4556846920000
0aaabg

#4556902302000
1aaabg

#4556903186000
0aaabg

#4556978380000
1aaabg

#4556979264000
0aaabg

#4563627542000
1aaabg

#4563646920000
0aaabg

#4565886450000
1aaabg

#4565896920000
0aaabg

#4570084132000
1aaabg

#4570086720000
0aaabg

#4570107818000
1aaabg

#4570116920000
0aaabg

#4570396040000
1aaabg

#4570396920000
0aaabg

#4570405226000
1aaabg

#4570416920000
0aaabg

#4571502942000
1aaabg

#4571503726000
0aaabg

#4572667808000
1aaabg

#4572676920000
0aaabg

#4572800124000
1aaabg

#4572816920000
0aaabg

#4573426152000
1aaabg

#4573436920000
0aaabg

#4573456954000
1aaabg

#4573466920000
0aaabg

#4573663022000
1aaabg

#4573666920000
0aaabg

#4573803692000
1aaabg

#4573806920000
0aaabg

#4573966048000
1aaabg

#4573966920000
0aaabg

#4574036122000
1aaabg

#4574036920000
0aaabg

#4574740222000
1aaabg

#4574746920000
0aaabg

#4574761918000
1aaabg

#4574766920000
0aaabg

#4574799540000
1aaabg

#4574806920000
0aaabg

#4574871948000
1aaabg

#4574872832000
0aaabg

#4579885072000
1aaabg

#4579886920000
0aaabg

#4596090982000
1aaabg

#4596106920000
0aaabg

#4601451992000
1aaabg

#4601456720000
0aaabg

#4606869460000
1aaabg

#4606876920000
0aaabg

#4606886992000
1aaabg

#4606896920000
0aaabg

#4612364868000
1aaabg

#4612366920000
0aaabg

#4612474462000
1aaabg

#4612476920000
0aaabg

#4612486000000
1aaabg

#4612486920000
0aaabg

#4612564386000
1aaabg

#4612566920000
0aaabg

#4617526170000
1aaabg

#4617546920000
0aaabg

#4631009202000
1aaabg

#4631016820000
0aaabg

#4636892184000
1aaabg

#4636906720000
0aaabg

#4658673928000
1aaabg

#4658686920000
0aaabg

#4665266058000
1aaabg

#4665266920000
0aaabg

#4675239260000
1aaabg

#4675246920000
0aaabg

#4679856728000
1aaabg

#4679857612000
0aaabg

#4689056228000
1aaabg

#4689076920000
0aaabg

#4875559794000
1aaabg

#4875566920000
0aaabg

#4971879324000
1aaabg

#4971895682000
0aaabg

#4974975590000
1aaabg

#4974976892000
0aaabg

#4982669396000
1aaabg

#4982676878000
0aaabg

#4989403606000
1aaabg

#4989406878000
0aaabg

#4993527090000
1aaabg

#4993536892000
0aaabg

#4993798326000
1aaabg

#4993806892000
0aaabg

#4993993732000
1aaabg

#4993996892000
0aaabg

#4994336360000
1aaabg

#4994346878000
0aaabg

#4994413364000
1aaabg

#4994416878000
0aaabg

