systemctlm-cosim-demo/trace.vcd
$date
     Oct 08, 2018       22:10:56
$end

$version
 SystemC 2.3.1-Accellera --- Aug  5 2014 20:36:07
$end

$timescale
     1 ps
$end

$scope module SystemC $end
$var wire    1  aaaaa  top.zynq.pl2ps_irq_0       $end
$var wire    1  aaaab  top.zynq.pl2ps_irq_1       $end
$var wire    1  aaaac  top.zynq.pl2ps_irq_2       $end
$var wire    1  aaaad  top.zynq.pl2ps_irq_3       $end
$var wire    1  aaaae  top.zynq.pl2ps_irq_4       $end
$var wire    1  aaaaf  top.zynq.pl2ps_irq_5       $end
$var wire    1  aaaag  top.zynq.pl2ps_irq_6       $end
$var wire    1  aaaah  top.zynq.pl2ps_irq_7       $end
$var wire    1  aaaai  top.zynq.pl2ps_irq_8       $end
$var wire    1  aaaaj  top.zynq.pl2ps_irq_9       $end
$var wire    1  aaaak  top.zynq.pl2ps_irq_10       $end
$var wire    1  aaaal  top.zynq.pl2ps_irq_11       $end
$var wire    1  aaaam  top.zynq.pl2ps_irq_12       $end
$var wire    1  aaaan  top.zynq.pl2ps_irq_13       $end
$var wire    1  aaaao  top.zynq.pl2ps_irq_14       $end
$var wire    1  aaaap  top.zynq.pl2ps_irq_15       $end
$var wire    1  aaaaq  top.zynq.pl2ps_irq_16       $end
$var wire    1  aaaar  top.zynq.pl2ps_irq_17       $end
$var wire    1  aaaas  top.zynq.pl2ps_irq_18       $end
$var wire    1  aaaat  top.zynq.pl2ps_irq_19       $end
$var wire    1  aaaau  top.zynq.ps2pl_irq_0       $end
$var wire    1  aaaav  top.zynq.ps2pl_irq_1       $end
$var wire    1  aaaaw  top.zynq.ps2pl_irq_2       $end
$var wire    1  aaaax  top.zynq.ps2pl_irq_3       $end
$var wire    1  aaaay  top.zynq.ps2pl_irq_4       $end
$var wire    1  aaaaz  top.zynq.ps2pl_irq_5       $end
$var wire    1  aaaba  top.zynq.ps2pl_irq_6       $end
$var wire    1  aaabb  top.zynq.ps2pl_irq_7       $end
$var wire    1  aaabc  top.zynq.ps2pl_irq_8       $end
$var wire    1  aaabd  top.zynq.ps2pl_irq_9       $end
$var wire    1  aaabe  top.zynq.ps2pl_irq_10       $end
$var wire    1  aaabf  top.zynq.ps2pl_irq_11       $end
$var wire    1  aaabg  top.zynq.ps2pl_irq_12       $end
$var wire    1  aaabh  top.zynq.ps2pl_irq_13       $end
$var wire    1  aaabi  top.zynq.ps2pl_irq_14       $end
$var wire    1  aaabj  top.zynq.ps2pl_irq_15       $end
$var wire    1  aaabk  top.zynq.ps2pl_irq_16       $end
$var wire    1  aaabl  top.zynq.ps2pl_irq_17       $end
$var wire    1  aaabm  top.zynq.ps2pl_irq_18       $end
$var wire    1  aaabn  top.zynq.ps2pl_irq_19       $end
$var wire    1  aaabo  top.zynq.ps2pl_irq_20       $end
$var wire    1  aaabp  top.zynq.ps2pl_irq_21       $end
$var wire    1  aaabq  top.zynq.ps2pl_irq_22       $end
$var wire    1  aaabr  top.zynq.ps2pl_irq_23       $end
$var wire    1  aaabs  top.zynq.ps2pl_irq_24       $end
$var wire    1  aaabt  top.zynq.ps2pl_irq_25       $end
$var wire    1  aaabu  top.zynq.ps2pl_irq_26       $end
$var wire    1  aaabv  top.zynq.ps2pl_irq_27       $end
$var wire    1  aaabw  top.zynq.ps2pl_rst_0       $end
$var wire    1  aaabx  top.zynq.ps2pl_rst_1       $end
$var wire    1  aaaby  top.zynq.ps2pl_rst_2       $end
$var wire    1  aaabz  top.zynq.ps2pl_rst_3       $end
$var wire    1  aaaca  top.zynq.ps2pl_rst_4       $end
$var wire    1  aaacb  top.zynq.ps2pl_rst_5       $end
$var wire    1  aaacc  top.zynq.ps2pl_rst_6       $end
$var wire    1  aaacd  top.zynq.ps2pl_rst_7       $end
$var wire    1  aaace  top.zynq.ps2pl_rst_8       $end
$var wire    1  aaacf  top.zynq.ps2pl_rst_9       $end
$var wire    1  aaacg  top.zynq.ps2pl_rst_10       $end
$var wire    1  aaach  top.zynq.ps2pl_rst_11       $end
$var wire    1  aaaci  top.zynq.ps2pl_rst_12       $end
$var wire    1  aaacj  top.zynq.ps2pl_rst_13       $end
$var wire    1  aaack  top.zynq.ps2pl_rst_14       $end
$var wire    1  aaacl  top.zynq.ps2pl_rst_15       $end
$var wire    1  aaacm  top.zynq.ps2pl_rst_16       $end
$var wire    1  aaacn  top.rst       $end
$upscope $end
$enddefinitions  $end

$comment
All initial values are dumped below at time 0 sec = 0 timescale units.
$end

$dumpvars
0aaaaa
0aaaab
0aaaac
0aaaad
0aaaae
0aaaaf
0aaaag
0aaaah
0aaaai
0aaaaj
0aaaak
0aaaal
0aaaam
0aaaan
0aaaao
0aaaap
0aaaaq
0aaaar
0aaaas
0aaaat
0aaaau
0aaaav
0aaaaw
0aaaax
0aaaay
0aaaaz
0aaaba
0aaabb
0aaabc
0aaabd
0aaabe
0aaabf
0aaabg
0aaabh
0aaabi
0aaabj
0aaabk
0aaabl
0aaabm
0aaabn
0aaabo
0aaabp
0aaabq
0aaabr
0aaabs
0aaabt
0aaabu
0aaabv
0aaabw
0aaabx
0aaaby
0aaabz
0aaaca
0aaacb
0aaacc
0aaacd
0aaace
0aaacf
0aaacg
0aaach
0aaaci
0aaacj
0aaack
0aaacl
0aaacm
1aaacn
$end

#1000000
0aaacn

#1001000
1aaaca

#1002000
1aaacb

#1003000
1aaacc

#1004000
1aaacd

#1005000
1aaace

#1006000
1aaacf

#1007000
1aaacg

#1008000
1aaach

#1009000
1aaaci

#1010000
1aaacj

#1011000
1aaack

#1012000
1aaacl

#1013000
1aaacm

#1351233494000
1aaabm

#1351237974000
0aaabm

#1351245956000
1aaabm

#1351252438000
0aaabm

#1351279694000
1aaabm

#1351286584000
0aaabm

#1351299096000
1aaabm

#1351305992000
0aaabm

#1351318816000
1aaabm

#1351325712000
0aaabm

#1351332976000
1aaabm

#1351338286000
0aaabm

#1351354546000
1aaabm

#1351357974000
0aaabm

#1351382200000
1aaabm

#1351388638000
0aaabm

#1351400204000
1aaabm

#1351407558000
0aaabm

#1351419440000
1aaabm

#1351426336000
0aaabm

#1351433600000
1aaabm

#1351438452000
0aaabm

